<svg width="60" height="60" viewBox="0 0 60 60" version="1.1" xmlns="http://www.w3.org/2000/svg" xmlns:xlink="http://www.w3.org/1999/xlink">
<title>ico_trans</title>
<desc>Created using Figma</desc>
<g id="Canvas" transform="translate(-512 -6216)">
<g id="ico_trans">
<g id="Ellipse">
<use xlink:href="#path0_fill" transform="translate(512 6216)" fill="#0052A8"/>
</g>
<g id="icon transaksi">
<g id="Group">
<g id="Vector">
<use xlink:href="#path1_fill" transform="translate(518 6224.99)" fill="#F1F7FF"/>
</g>
<g id="Vector">
<use xlink:href="#path2_fill" transform="translate(550.787 6250.21)" fill="#F1F7FF"/>
</g>
<g id="Vector">
<use xlink:href="#path3_fill" transform="translate(558.646 6224)" fill="#F1F7FF"/>
</g>
<g id="Vector">
<use xlink:href="#path4_fill" transform="translate(561.405 6231.9)" fill="#F1F7FF"/>
</g>
</g>
</g>
</g>
</g>
<defs>
<path id="path0_fill" d="M 60 30C 60 46.5685 46.5685 60 30 60C 13.4315 60 0 46.5685 0 30C 0 13.4315 13.4315 0 30 0C 46.5685 0 60 13.4315 60 30Z"/>
<path id="path1_fill" d="M 4.47091 42.4684L 39.0328 42.4684C 41.5057 42.4665 43.5073 40.6028 43.5093 38.3043L 43.5093 32.6827L 45.3375 32.6827C 46.9759 32.6808 48.3022 31.4471 48.3042 29.923L 48.3042 23.4132C 48.3022 21.8891 46.9759 20.6554 45.3375 20.6535L 43.5093 20.6535L 43.5093 14.9921C 43.495 12.7221 41.5159 10.8887 39.0756 10.8868L 38.945 10.8868L 38.945 8.85972C 38.943 6.8061 37.1515 5.14352 34.9438 5.14352L 26.1843 5.14352L 21.0384 0.35682C 20.7936 0.129064 20.461 1.09726e-08 20.1142 1.09726e-08C 19.7673 1.09726e-08 19.4347 0.129059 19.1899 0.35682L 14.0502 5.14352L 4.37658 5.14352C 2.40153 5.14921 0.675368 6.37911 0.155071 8.15179C 0.0530535 8.32641 -5.4556e-08 8.5219 -5.4556e-08 8.7193L -5.4556e-08 38.305C 0.00204071 40.6016 2.00159 42.4635 4.47045 42.4692L 4.47091 42.4684ZM 45.6925 23.4127L 45.6925 29.9225C 45.6925 30.0098 45.6558 30.0952 45.5885 30.156C 45.5232 30.2186 45.4334 30.2528 45.3375 30.2528L 34.2645 30.2528C 32.1915 30.2945 30.4368 28.8407 30.243 26.9199C 30.1716 25.9292 30.5449 24.9574 31.2734 24.2324C 32.0018 23.5074 33.02 23.0975 34.087 23.0956L 45.3376 23.0956C 45.5294 23.0956 45.6845 23.236 45.6926 23.4125L 45.6925 23.4127ZM 40.8977 14.9914L 40.8977 20.6529L 34.1073 20.6529C 32.326 20.6605 30.6264 21.3476 29.4063 22.5566C 28.1617 23.7618 27.5189 25.3979 27.6312 27.0661C 27.9107 30.2699 30.8101 32.7242 34.2643 32.6824L 40.8974 32.6824L 40.8974 38.3041C 40.8974 39.2626 40.0629 40.0388 39.0326 40.0388L 4.47071 40.0388C 3.4403 40.0388 2.60581 39.2625 2.60581 38.3041L 2.60581 12.9455C 3.16283 13.177 3.76681 13.2966 4.37684 13.2966L 39.0755 13.2966C 39.5591 13.2966 40.0223 13.475 40.3651 13.792C 40.7058 14.1108 40.8976 14.5417 40.8976 14.9915L 40.8977 14.9914ZM 34.9441 7.57204C 35.3113 7.57204 35.6623 7.7087 35.9235 7.94974C 36.1826 8.19078 36.3275 8.51914 36.3275 8.85887L 36.3275 10.8859L 32.3324 10.8859L 28.7904 7.59106L 34.9441 7.57204ZM 20.1108 2.93718L 28.6458 10.8857L 11.5905 10.8857L 20.1108 2.93718ZM 4.37757 7.57204L 11.4395 7.57204L 7.89748 10.8859L 4.37783 10.8859C 3.40049 10.8859 2.60681 10.1476 2.60681 9.23847C 2.60681 8.32934 3.40049 7.59104 4.37783 7.59104L 4.37757 7.57204Z"/>
<path id="path2_fill" d="M 3.11157 1.44769C 3.11157 3.37795 1.14772e-06 3.37795 1.14772e-06 1.44769C 1.14772e-06 -0.482563 3.11157 -0.482563 3.11157 1.44769Z"/>
<path id="path3_fill" d="M 1.30919 4.41752C 1.65401 4.41941 1.98864 4.29225 2.23346 4.0645L 4.36969 2.07734L 4.36969 2.07545C 4.87978 1.60095 4.87978 0.830379 4.36969 0.355868C 3.85756 -0.118623 3.03122 -0.118623 2.51907 0.355868L 0.382838 2.34302C 0.00945403 2.69035 -0.102768 3.2142 0.0992278 3.66782C 0.301224 4.12333 0.778676 4.41943 1.30916 4.41753L 1.30919 4.41752Z"/>
<path id="path4_fill" d="M 9.13957e-06 1.21472C 9.13957e-06 1.53737 0.138753 1.84486 0.383602 2.07259C 0.628451 2.30032 0.959006 2.4294 1.30584 2.4294L 4.28883 2.4294C 5.00908 2.4294 5.59467 1.88468 5.59467 1.2147C 5.59467 0.542826 5.00908 -3.99761e-07 4.28883 -3.99761e-07L 1.30584 -3.99761e-07C 0.58559 -3.99761e-07 1.16938e-06 0.542826 1.16938e-06 1.2147L 9.13957e-06 1.21472Z"/>
</defs>
</svg>
